# Name,         Type,   SubType,    Offset,     Size,   Flags
# Note: if you have increased the bootloader size, make sure to update the offsets to avoid overlap,,,,
nvs,            data,   nvs,        0x9000,     16k,
otadata,        data,   ota,        0xd000,     8k,
phy_init,       data,   phy,        0xf000,     4k,
ota_0,app,ota_0,,1536k,
ota_1,app,ota_1,,1536k,
nvs_key,data,nvs_keys,,4k,
storage,  data, fat,  ,        768k, 
jee_key,       data,      ,              ,     4k,
net_info, data, , , 4k